M.Tech_SV/Experiment 8/dump.vcd
$date
Thu May 12 07:13:22 2022
$end
$version
Riviera-PRO Version 2020.04.130.7729
$end
$timescale
1 ns
$end

$scope module tbench_top $end
$var reg 1 ! clk $end
$var reg 1 " reset $end

$scope module i_intf $end
$var reg 4 # a [3:0] $end
$var reg 4 $ b [3:0] $end
$var reg 7 % sum [6:0] $end
$upscope $end


$scope module t1 $end
$upscope $end


$scope module f1 $end
$var wire 4 & a [3:0] $end
$var wire 4 ' b [3:0] $end
$var wire 1 ( clk $end
$var wire 1 ) reset $end
$var reg 7 * sum [6:0] $end
$upscope $end

$upscope $end

$enddefinitions $end
$dumpvars
0!
1"
bx #
bx $
bx %
bx &
bx '
0(
1)
bx *
$end
b1110 #
b1011 $
b1011 '
b1110 &
#5
1!
0"
0)
1(
b11001 *
b11001 %
#6
b101 #
b1110 $
b1110 '
b101 &
#10
0!
0(
#15
1!
1(
b10011 *
b10011 %
#16
b110 #
b110 $
b110 '
b110 &
#20
0!
0(
#25
1!
1(
b1100 *
b1100 %
#26
b1111 #
b1001 $
b1001 '
b1111 &
#30
0!
0(
#35
1!
1(
b11000 *
b11000 %
#36
b0 #
b110 $
b110 '
b0 &
#40
0!
0(
#45
1!
1(
b110 *
b110 %
#46
b101 #
b1010 $
b1010 '
b101 &
#50
0!
0(
#55
1!
1(
b1111 *
b1111 %
